    0.9394289194E-07    0.8829065552E-31    0.5884904883E-30   -0.8000000000E+01
    0.1894646192E-06    0.1460735021E-29    0.9736351213E-29   -0.8000000000E+01
    0.2865917161E-06    0.7647392915E-29    0.5097277508E-28   -0.8000000000E+01
    0.3853511631E-06    0.2499686146E-28    0.1666135979E-27   -0.8000000000E+01
    0.4857703940E-06    0.6312229706E-28    0.4207342976E-27   -0.8000000000E+01
    0.5878773037E-06    0.1353963479E-27    0.9024653177E-27   -0.8000000000E+01
    0.6917002558E-06    0.2594971916E-27    0.1729639088E-26   -0.8000000000E+01
    0.7972680908E-06    0.4580141787E-27    0.3052820551E-26   -0.8000000000E+01
    0.9046101337E-06    0.7591147184E-27    0.5059755607E-26   -0.8000000000E+01
    0.1013756202E-05    0.1197280309E-26    0.7980274734E-26   -0.8000000000E+01
    0.1124736616E-05    0.1814116329E-26    0.1209169215E-25   -0.8000000000E+01
    0.1237582203E-05    0.2659243042E-26    0.1772474385E-25   -0.8000000000E+01
    0.1352324310E-05    0.3791274381E-26    0.2527011201E-25   -0.8000000000E+01
    0.1468994812E-05    0.5278892376E-26    0.3518558647E-25   -0.8000000000E+01
    0.1587626116E-05    0.7202025391E-26    0.4800391780E-25   -0.8000000000E+01
    0.1708251177E-05    0.9653139120E-26    0.6434142285E-25   -0.8000000000E+01
    0.1830903502E-05    0.1273864995E-25    0.8490740495E-25   -0.8000000000E+01
    0.1955617163E-05    0.1658047112E-25    0.1105144601E-24   -0.8000000000E+01
    0.2082426803E-05    0.2131770282E-25    0.1420897421E-24   -0.8000000000E+01
    0.2211367648E-05    0.2710847846E-25    0.1806872685E-24   -0.8000000000E+01
    0.2342475515E-05    0.3413198009E-25    0.2275013543E-24   -0.8000000000E+01
    0.2475786825E-05    0.4259063704E-25    0.2838812678E-24   -0.8000000000E+01
    0.2611338608E-05    0.5271252310E-25    0.3513472066E-24   -0.8000000000E+01
    0.2749168519E-05    0.6475396850E-25    0.4316077105E-24   -0.8000000000E+01
    0.2889314846E-05    0.7900240445E-25    0.5265786205E-24   -0.8000000000E+01
    0.3031816518E-05    0.9577945923E-25    0.6384037142E-24   -0.8000000000E+01
    0.3176713120E-05    0.1154443264E-24    0.7694771588E-24   -0.8000000000E+01
    0.3324044902E-05    0.1383974273E-24    0.9224679218E-24   -0.8000000000E+01
    0.3473852791E-05    0.1650843912E-24    0.1100346303E-23   -0.8000000000E+01
    0.3626178400E-05    0.1960003799E-24    0.1306412756E-23   -0.8000000000E+01
    0.3781064044E-05    0.2316947829E-24    0.1544329189E-23   -0.8000000000E+01
    0.3938552748E-05    0.2727763139E-24    0.1818152933E-23   -0.8000000000E+01
    0.4098688259E-05    0.3199185409E-24    0.2132373598E-23   -0.8000000000E+01
    0.4261515060E-05    0.3738658827E-24    0.2491953052E-23   -0.8000000000E+01
    0.4427078382E-05    0.4354401118E-24    0.2902368761E-23   -0.8000000000E+01
    0.4595424215E-05    0.5055474002E-24    0.3369660750E-23   -0.8000000000E+01
    0.4766599325E-05    0.5851859541E-24    0.3900482506E-23   -0.8000000000E+01
    0.4940651260E-05    0.6754542814E-24    0.4502156064E-23   -0.8000000000E+01
    0.5117628369E-05    0.7775601437E-24    0.5182731694E-23   -0.8000000000E+01
    0.5297579814E-05    0.8928302445E-24    0.5951052476E-23   -0.8000000000E+01
    0.5480555583E-05    0.1022720712E-23    0.6816824171E-23   -0.8000000000E+01
    0.5666606503E-05    0.1168828440E-23    0.7790690800E-23   -0.8000000000E+01
    0.5855784256E-05    0.1332903346E-23    0.8884316387E-23   -0.8000000000E+01
    0.6048141393E-05    0.1516861633E-23    0.1011047332E-22   -0.8000000000E+01
    0.6243731347E-05    0.1722800111E-23    0.1148313784E-22   -0.8000000000E+01
    0.6442608451E-05    0.1953011683E-23    0.1301759324E-22   -0.8000000000E+01
    0.6644827949E-05    0.2210002065E-23    0.1473054134E-22   -0.8000000000E+01
    0.6850446015E-05    0.2496507845E-23    0.1664022285E-22   -0.8000000000E+01
    0.7059519766E-05    0.2815515991E-23    0.1876654737E-22   -0.8000000000E+01
    0.7272107279E-05    0.3170284890E-23    0.2113123370E-22   -0.8000000000E+01
    0.7488267609E-05    0.3564367078E-23    0.2375796131E-22   -0.8000000000E+01
    0.7708060800E-05    0.4001633745E-23    0.2667253364E-22   -0.8000000000E+01
    0.7931547908E-05    0.4486301183E-23    0.2990305448E-22   -0.8000000000E+01
    0.8158791015E-05    0.5022959310E-23    0.3348011804E-22   -0.8000000000E+01
    0.8389853244E-05    0.5616602424E-23    0.3743701396E-22   -0.8000000000E+01
    0.8624798782E-05    0.6272662364E-23    0.4180994838E-22   -0.8000000000E+01
    0.8863692892E-05    0.6997044256E-23    0.4663828216E-22   -0.8000000000E+01
    0.9106601935E-05    0.7796165039E-23    0.5196478770E-22   -0.8000000000E+01
    0.9353593387E-05    0.8676994972E-23    0.5783592566E-22   -0.8000000000E+01
    0.9604735860E-05    0.9647102362E-23    0.6430214308E-22   -0.8000000000E+01
    0.9860099116E-05    0.1071470174E-22    0.7141819445E-22   -0.8000000000E+01
    0.1011975409E-04    0.1188870574E-22    0.7924348759E-22   -0.8000000000E+01
    0.1038377291E-04    0.1317878099E-22    0.8784245615E-22   -0.8000000000E+01
    0.1065222892E-04    0.1459540824E-22    0.9728496068E-22   -0.8000000000E+01
    0.1092519670E-04    0.1614994717E-22    0.1076467204E-21   -0.8000000000E+01
    0.1120275205E-04    0.1785470602E-22    0.1190097763E-21   -0.8000000000E+01
    0.1148497210E-04    0.1972301670E-22    0.1314629947E-21   -0.8000000000E+01
    0.1177193522E-04    0.2176931544E-22    0.1451026010E-21   -0.8000000000E+01
    0.1206372115E-04    0.2400922967E-22    0.1600327629E-21   -0.8000000000E+01
    0.1236041092E-04    0.2645967143E-22    0.1763662087E-21   -0.8000000000E+01
    0.1266208697E-04    0.2913893791E-22    0.1942249021E-21   -0.8000000000E+01
    0.1296883307E-04    0.3206681947E-22    0.2137407571E-21   -0.8000000000E+01
    0.1328073446E-04    0.3526471590E-22    0.2350564191E-21   -0.8000000000E+01
    0.1359787776E-04    0.3875576140E-22    0.2583260914E-21   -0.8000000000E+01
    0.1392035108E-04    0.4256495890E-22    0.2837164364E-21   -0.8000000000E+01
    0.1424824399E-04    0.4671932451E-22    0.3114075341E-21   -0.8000000000E+01
    0.1458164758E-04    0.5124804274E-22    0.3415939201E-21   -0.8000000000E+01
    0.1492065446E-04    0.5618263335E-22    0.3744856950E-21   -0.8000000000E+01
    0.1526535880E-04    0.6155713065E-22    0.4103097216E-21   -0.8000000000E+01
    0.1561585635E-04    0.6740827612E-22    0.4493109077E-21   -0.8000000000E+01
    0.1597224449E-04    0.7377572540E-22    0.4917535888E-21   -0.8000000000E+01
    0.1633462220E-04    0.8070227068E-22    0.5379230041E-21   -0.8000000000E+01
    0.1670309015E-04    0.8823407950E-22    0.5881268954E-21   -0.8000000000E+01
    0.1707775069E-04    0.9642095132E-22    0.6426972129E-21   -0.8000000000E+01
    0.1745870790E-04    0.1053165931E-21    0.7019919549E-21   -0.8000000000E+01
    0.1784606761E-04    0.1149789151E-21    0.7663971394E-21   -0.8000000000E+01
    0.1823993741E-04    0.1254703486E-21    0.8363289178E-21   -0.8000000000E+01
    0.1864042671E-04    0.1368581872E-21    0.9122358547E-21   -0.8000000000E+01
    0.1904764678E-04    0.1492149529E-21    0.9946013714E-21   -0.8000000000E+01
    0.1946171071E-04    0.1626187894E-21    0.1083946353E-20   -0.8000000000E+01
    0.1988273354E-04    0.1771538838E-21    0.1180831981E-20   -0.8000000000E+01
    0.2031083223E-04    0.1929109203E-21    0.1285862741E-20   -0.8000000000E+01
    0.2074612567E-04    0.2099875655E-21    0.1399689658E-20   -0.8000000000E+01
    0.2118873481E-04    0.2284889910E-21    0.1523013800E-20   -0.8000000000E+01
    0.2163878258E-04    0.2485284327E-21    0.1656589975E-20   -0.8000000000E+01
    0.2209639400E-04    0.2702277919E-21    0.1801230765E-20   -0.8000000000E+01
    0.2256169619E-04    0.2937182799E-21    0.1957810810E-20   -0.8000000000E+01
    0.2303481840E-04    0.3191411093E-21    0.2127271420E-20   -0.8000000000E+01
    0.2351589206E-04    0.3466482363E-21    0.2310625523E-20   -0.8000000000E+01
    0.2400505080E-04    0.3764031564E-21    0.2508962966E-20   -0.8000000000E+01
    0.2450243051E-04    0.4085817581E-21    0.2723456215E-20   -0.8000000000E+01
    0.2500816935E-04    0.4433732385E-21    0.2955366450E-20   -0.8000000000E+01
    0.2552240779E-04    0.4809810857E-21    0.3206050105E-20   -0.8000000000E+01
    0.2604528870E-04    0.5216241314E-21    0.3476965921E-20   -0.8000000000E+01
    0.2657695732E-04    0.5655376810E-21    0.3769682438E-20   -0.8000000000E+01
    0.2711756134E-04    0.6129747243E-21    0.4085886088E-20   -0.8000000000E+01
    0.2766725093E-04    0.6642072343E-21    0.4427389849E-20   -0.8000000000E+01
    0.2822617878E-04    0.7195275597E-21    0.4796142523E-20   -0.8000000000E+01
    0.2879450016E-04    0.7792499175E-21    0.5194238704E-20   -0.8000000000E+01
    0.2937237293E-04    0.8437119935E-21    0.5623929418E-20   -0.8000000000E+01
    0.2995995763E-04    0.9132766581E-21    0.6087633601E-20   -0.8000000000E+01
    0.3055741747E-04    0.9883338056E-21    0.6587950317E-20   -0.8000000000E+01
    0.3116491841E-04    0.1069302325E-20    0.7127671922E-20   -0.8000000000E+01
    0.3178262922E-04    0.1156632215E-20    0.7709798172E-20   -0.8000000000E+01
    0.3241072148E-04    0.1250806845E-20    0.8337551275E-20   -0.8000000000E+01
    0.3304936966E-04    0.1352345386E-20    0.9014392101E-20   -0.8000000000E+01
    0.3369875118E-04    0.1461805411E-20    0.9744037542E-20   -0.8000000000E+01
    0.3435904642E-04    0.1579785683E-20    0.1053047905E-19   -0.8000000000E+01
    0.3503043880E-04    0.1706929139E-20    0.1137800260E-19   -0.8000000000E+01
    0.3571311482E-04    0.1843926097E-20    0.1229120997E-19   -0.8000000000E+01
    0.3640726411E-04    0.1991517680E-20    0.1327504169E-19   -0.8000000000E+01
    0.3711307952E-04    0.2150499497E-20    0.1433480152E-19   -0.8000000000E+01
    0.3783075708E-04    0.2321725573E-20    0.1547618258E-19   -0.8000000000E+01
    0.3856049618E-04    0.2506112576E-20    0.1670529569E-19   -0.8000000000E+01
    0.3930249951E-04    0.2704644329E-20    0.1802869931E-19   -0.8000000000E+01
    0.4005697319E-04    0.2918376657E-20    0.1945343192E-19   -0.8000000000E+01
    0.4082412681E-04    0.3148442569E-20    0.2098704658E-19   -0.8000000000E+01
    0.4160417346E-04    0.3396057819E-20    0.2263764792E-19   -0.8000000000E+01
    0.4239732984E-04    0.3662526850E-20    0.2441393193E-19   -0.8000000000E+01
    0.4320381627E-04    0.3949249176E-20    0.2632522832E-19   -0.8000000000E+01
    0.4402385677E-04    0.4257726202E-20    0.2838154610E-19   -0.8000000000E+01
    0.4485767914E-04    0.4589568545E-20    0.3059362238E-19   -0.8000000000E+01
    0.4570551501E-04    0.4946503855E-20    0.3297297454E-19   -0.8000000000E+01
    0.4656759989E-04    0.5330385213E-20    0.3553195611E-19   -0.8000000000E+01
    0.4744417325E-04    0.5743200106E-20    0.3828381671E-19   -0.8000000000E+01
    0.4833547859E-04    0.6187080049E-20    0.4124276620E-19   -0.8000000000E+01
    0.4924176351E-04    0.6664310886E-20    0.4442404334E-19   -0.8000000000E+01
    0.5016327974E-04    0.7177343819E-20    0.4784398922E-19   -0.8000000000E+01
    0.5110028329E-04    0.7728807223E-20    0.5152012629E-19   -0.8000000000E+01
    0.5205303442E-04    0.8321519288E-20    0.5547124231E-19   -0.8000000000E+01
    0.5302179781E-04    0.8958501564E-20    0.5971748104E-19   -0.8000000000E+01
    0.5400684255E-04    0.9642993458E-20    0.6428043852E-19   -0.8000000000E+01
    0.5500844228E-04    0.1037846776E-19    0.6918326688E-19   -0.8000000000E+01
    0.5602687523E-04    0.1116864726E-19    0.7445078502E-19   -0.8000000000E+01
    0.5706242430E-04    0.1201752255E-19    0.8010959724E-19   -0.8000000000E+01
    0.5811537715E-04    0.1292937106E-19    0.8618822027E-19   -0.8000000000E+01
    0.5918602627E-04    0.1390877745E-19    0.9271721928E-19   -0.8000000000E+01
    0.6027466907E-04    0.1496065548E-19    0.9972935341E-19   -0.8000000000E+01
    0.6138160797E-04    0.1609027132E-19    0.1072597317E-18   -0.8000000000E+01
    0.6250715044E-04    0.1730326860E-19    0.1153459797E-18   -0.8000000000E+01
    0.6365160915E-04    0.1860569522E-19    0.1240284182E-18   -0.8000000000E+01
    0.6481530202E-04    0.2000403194E-19    0.1333502543E-18   -0.8000000000E+01
    0.6599855229E-04    0.2150522313E-19    0.1433577861E-18   -0.8000000000E+01
    0.6720168866E-04    0.2311670959E-19    0.1541006214E-18   -0.8000000000E+01
    0.6842504533E-04    0.2484646368E-19    0.1656319125E-18   -0.8000000000E+01
    0.6966896214E-04    0.2670302698E-19    0.1780086068E-18   -0.8000000000E+01
    0.7093378463E-04    0.2869555053E-19    0.1912917153E-18   -0.8000000000E+01
    0.7221986414E-04    0.3083383795E-19    0.2055466002E-18   -0.8000000000E+01
    0.7352755793E-04    0.3312839152E-19    0.2208432822E-18   -0.8000000000E+01
    0.7485722925E-04    0.3559046162E-19    0.2372567699E-18   -0.8000000000E+01
    0.7620924747E-04    0.3823209948E-19    0.2548674120E-18   -0.8000000000E+01
    0.7758398816E-04    0.4106621376E-19    0.2737612741E-18   -0.8000000000E+01
    0.7898183319E-04    0.4410663104E-19    0.2940305423E-18   -0.8000000000E+01
    0.8040317086E-04    0.4736816056E-19    0.3157739552E-18   -0.8000000000E+01
    0.8184839601E-04    0.5086666351E-19    0.3390972657E-18   -0.8000000000E+01
    0.8331791008E-04    0.5461912718E-19    0.3641137350E-18   -0.8000000000E+01
    0.8481212130E-04    0.5864374426E-19    0.3909446627E-18   -0.8000000000E+01
    0.8633144472E-04    0.6295999779E-19    0.4197199516E-18   -0.8000000000E+01
    0.8787630240E-04    0.6758875193E-19    0.4505787149E-18   -0.8000000000E+01
    0.8944712346E-04    0.7255234922E-19    0.4836699228E-18   -0.8000000000E+01
    0.9104434426E-04    0.7787471453E-19    0.5191530977E-18   -0.8000000000E+01
    0.9266840848E-04    0.8358146638E-19    0.5571990552E-18   -0.8000000000E+01
    0.9431976726E-04    0.8970003598E-19    0.5979906985E-18   -0.8000000000E+01
    0.9599887933E-04    0.9625979461E-19    0.6417238682E-18   -0.8000000000E+01
    0.9770621110E-04    0.1032921900E-18    0.6886082503E-18   -0.8000000000E+01
    0.9944223686E-04    0.1108308919E-18    0.7388683505E-18   -0.8000000000E+01
    0.1012074388E-03    0.1189119485E-18    0.7927445318E-18   -0.8000000000E+01
    0.1030023074E-03    0.1275739531E-18    0.8504941352E-18   -0.8000000000E+01
    0.1048273411E-03    0.1368582225E-18    0.9123926564E-18   -0.8000000000E+01
    0.1066830469E-03    0.1468089886E-18    0.9787350344E-18   -0.8000000000E+01
    0.1085699403E-03    0.1574736023E-18    0.1049837008E-17   -0.8000000000E+01
    0.1104885455E-03    0.1689027522E-18    0.1126036579E-17   -0.8000000000E+01
    0.1124393954E-03    0.1811506987E-18    0.1207695560E-17   -0.8000000000E+01
    0.1144230319E-03    0.1942755244E-18    0.1295201259E-17   -0.8000000000E+01
    0.1164400061E-03    0.2083394013E-18    0.1388968257E-17   -0.8000000000E+01
    0.1184908782E-03    0.2234088776E-18    0.1489440315E-17   -0.8000000000E+01
    0.1205762179E-03    0.2395551837E-18    0.1597092425E-17   -0.8000000000E+01
    0.1226966046E-03    0.2568545604E-18    0.1712432996E-17   -0.8000000000E+01
    0.1248526271E-03    0.2753886087E-18    0.1836006174E-17   -0.8000000000E+01
    0.1270448845E-03    0.2952446655E-18    0.1968394377E-17   -0.8000000000E+01
    0.1292739857E-03    0.3165162044E-18    0.2110220937E-17   -0.8000000000E+01
    0.1315405499E-03    0.3393032646E-18    0.2262152979E-17   -0.8000000000E+01
    0.1338452068E-03    0.3637129100E-18    0.2424904487E-17   -0.8000000000E+01
    0.1361885964E-03    0.3898597200E-18    0.2599239550E-17   -0.8000000000E+01
    0.1385713699E-03    0.4178663147E-18    0.2785975915E-17   -0.8000000000E+01
    0.1409941890E-03    0.4478639165E-18    0.2985988675E-17   -0.8000000000E+01
    0.1434577268E-03    0.4799929507E-18    0.3200214322E-17   -0.8000000000E+01
    0.1459626676E-03    0.5144036879E-18    0.3429655011E-17   -0.8000000000E+01
    0.1485097074E-03    0.5512569316E-18    0.3675383167E-17   -0.8000000000E+01
    0.1510995535E-03    0.5907247530E-18    0.3938546333E-17   -0.8000000000E+01
    0.1537329254E-03    0.6329912773E-18    0.4220372484E-17   -0.8000000000E+01
    0.1564105546E-03    0.6782535242E-18    0.4522175597E-17   -0.8000000000E+01
    0.1591331849E-03    0.7267223077E-18    0.4845361659E-17   -0.8000000000E+01
    0.1619015727E-03    0.7786231975E-18    0.5191435099E-17   -0.8000000000E+01
    0.1647164869E-03    0.8341975481E-18    0.5562005610E-17   -0.8000000000E+01
    0.1675787095E-03    0.8937035988E-18    0.5958795538E-17   -0.8000000000E+01
    0.1704890356E-03    0.9574176502E-18    0.6383647706E-17   -0.8000000000E+01
    0.1734482735E-03    0.1025635323E-17    0.6838533793E-17   -0.8000000000E+01
    0.1764572454E-03    0.1098672903E-17    0.7325563381E-17   -0.8000000000E+01
    0.1795167871E-03    0.1176868783E-17    0.7846993482E-17   -0.8000000000E+01
    0.1826277484E-03    0.1260584998E-17    0.8405238832E-17   -0.8000000000E+01
    0.1857909935E-03    0.1350208875E-17    0.9002882902E-17   -0.8000000000E+01
    0.1890074013E-03    0.1446154790E-17    0.9642689665E-17   -0.8000000000E+01
    0.1922778650E-03    0.1548866058E-17    0.1032761603E-16   -0.8000000000E+01
    0.1956032932E-03    0.1658816935E-17    0.1106082545E-16   -0.8000000000E+01
    0.1989846097E-03    0.1776514782E-17    0.1184570218E-16   -0.8000000000E+01
    0.2024227536E-03    0.1902502362E-17    0.1268586665E-16   -0.8000000000E+01
    0.2059186802E-03    0.2037360304E-17    0.1358519200E-16   -0.8000000000E+01
    0.2094733605E-03    0.2181709736E-17    0.1454782149E-16   -0.8000000000E+01
    0.2130877819E-03    0.2336215101E-17    0.1557818740E-16   -0.8000000000E+01
    0.2167629484E-03    0.2501587168E-17    0.1668103111E-16   -0.8000000000E+01
    0.2204998810E-03    0.2678586253E-17    0.1786142461E-16   -0.8000000000E+01
    0.2242996178E-03    0.2868025664E-17    0.1912479346E-16   -0.8000000000E+01
    0.2281632142E-03    0.3070775378E-17    0.2047694129E-16   -0.8000000000E+01
    0.2320917434E-03    0.3287765985E-17    0.2192407621E-16   -0.8000000000E+01
    0.2360862968E-03    0.3519992895E-17    0.2347283888E-16   -0.8000000000E+01
    0.2401479840E-03    0.3768520843E-17    0.2513033252E-16   -0.8000000000E+01
    0.2442779333E-03    0.4034488700E-17    0.2690415509E-16   -0.8000000000E+01
    0.2484772918E-03    0.4319114625E-17    0.2880243354E-16   -0.8000000000E+01
    0.2527472262E-03    0.4623701570E-17    0.3083386082E-16   -0.8000000000E+01
    0.2570889224E-03    0.4949643162E-17    0.3300773481E-16   -0.8000000000E+01
    0.2615035867E-03    0.5298430005E-17    0.3533400076E-16   -0.8000000000E+01
    0.2659924453E-03    0.5671656405E-17    0.3782329583E-16   -0.8000000000E+01
    0.2705567451E-03    0.6071027568E-17    0.4048699732E-16   -0.8000000000E+01
    0.2751977540E-03    0.6498367297E-17    0.4333727406E-16   -0.8000000000E+01
    0.2799167613E-03    0.6955626220E-17    0.4638714137E-16   -0.8000000000E+01
    0.2847150778E-03    0.7444890586E-17    0.4965051964E-16   -0.8000000000E+01
    0.2895940363E-03    0.7968391676E-17    0.5314229722E-16   -0.8000000000E+01
    0.2945549923E-03    0.8528515859E-17    0.5687839779E-16   -0.8000000000E+01
    0.2995993237E-03    0.9127815349E-17    0.6087585171E-16   -0.8000000000E+01
    0.3047284318E-03    0.9769019707E-17    0.6515287328E-16   -0.8000000000E+01
    0.3099437414E-03    0.1045504813E-16    0.6972894259E-16   -0.8000000000E+01
    0.3152467012E-03    0.1118902261E-16    0.7462489330E-16   -0.8000000000E+01
    0.3206387843E-03    0.1197428197E-16    0.7986300667E-16   -0.8000000000E+01
    0.3261214885E-03    0.1281439693E-16    0.8546711171E-16   -0.8000000000E+01
    0.3316963369E-03    0.1371318614E-16    0.9146269280E-16   -0.8000000000E+01
    0.3373648780E-03    0.1467473337E-16    0.9787700401E-16   -0.8000000000E+01
    0.3431286865E-03    0.1570340592E-16    0.1047391922E-15   -0.8000000000E+01
    0.3489893635E-03    0.1680387419E-16    0.1120804281E-15   -0.8000000000E+01
    0.3549485369E-03    0.1798113274E-16    0.1199340462E-15   -0.8000000000E+01
    0.3610078622E-03    0.1924052274E-16    0.1283356954E-15   -0.8000000000E+01
    0.3671690225E-03    0.2058775594E-16    0.1373234987E-15   -0.8000000000E+01
    0.3734337293E-03    0.2202894036E-16    0.1469382251E-15   -0.8000000000E+01
    0.3798037228E-03    0.2357060774E-16    0.1572234727E-15   -0.8000000000E+01
    0.3862807725E-03    0.2521974286E-16    0.1682258646E-15   -0.8000000000E+01
    0.3928666777E-03    0.2698381493E-16    0.1799952590E-15   -0.8000000000E+01
    0.3995632678E-03    0.2887081111E-16    0.1925849724E-15   -0.8000000000E+01
    0.4063724029E-03    0.3088927237E-16    0.2060520195E-15   -0.8000000000E+01
    0.4132959747E-03    0.3304833182E-16    0.2204573701E-15   -0.8000000000E+01
    0.4203359063E-03    0.3535775574E-16    0.2358662215E-15   -0.8000000000E+01
    0.4274941533E-03    0.3782798732E-16    0.2523482925E-15   -0.8000000000E+01
    0.4347727042E-03    0.4047019357E-16    0.2699781359E-15   -0.8000000000E+01
    0.4421735808E-03    0.4329631539E-16    0.2888354728E-15   -0.8000000000E+01
    0.4496988390E-03    0.4631912110E-16    0.3090055516E-15   -0.8000000000E+01
    0.4573505691E-03    0.4955226370E-16    0.3305795290E-15   -0.8000000000E+01
    0.4651308968E-03    0.5301034208E-16    0.3536548808E-15   -0.8000000000E+01
    0.4730419832E-03    0.5670896644E-16    0.3783358373E-15   -0.8000000000E+01
    0.4810860259E-03    0.6066482825E-16    0.4047338524E-15   -0.8000000000E+01
    0.4892652595E-03    0.6489577503E-16    0.4329681030E-15   -0.8000000000E+01
    0.4975819560E-03    0.6942089032E-16    0.4631660228E-15   -0.8000000000E+01
    0.5060384256E-03    0.7426057913E-16    0.4954638740E-15   -0.8000000000E+01
    0.5146370175E-03    0.7943665933E-16    0.5300073594E-15   -0.8000000000E+01
    0.5233801201E-03    0.8497245937E-16    0.5669522730E-15   -0.8000000000E+01
    0.5322701623E-03    0.9089292268E-16    0.6064652012E-15   -0.8000000000E+01
    0.5413096133E-03    0.9722471935E-16    0.6487242654E-15   -0.8000000000E+01
    0.5505009844E-03    0.1039963655E-15    0.6939199252E-15   -0.8000000000E+01
    0.5598468288E-03    0.1112383508E-15    0.7422558277E-15   -0.8000000000E+01
    0.5693497424E-03    0.1189832751E-15    0.7939497194E-15   -0.8000000000E+01
    0.5790123652E-03    0.1272659939E-15    0.8492344257E-15   -0.8000000000E+01
    0.5888373812E-03    0.1361237749E-15    0.9083588886E-15   -0.8000000000E+01
    0.5988275196E-03    0.1455964637E-15    0.9715892841E-15   -0.8000000000E+01
    0.6089855557E-03    0.1557266631E-15    0.1039210215E-14   -0.8000000000E+01
    0.6193143110E-03    0.1665599226E-15    0.1111525980E-14   -0.8000000000E+01
    0.6298166548E-03    0.1781449428E-15    0.1188861943E-14   -0.8000000000E+01
    0.6404955045E-03    0.1905337924E-15    0.1271565983E-14   -0.8000000000E+01
    0.6513538265E-03    0.2037821414E-15    0.1360010054E-14   -0.8000000000E+01
    0.6623946370E-03    0.2179495098E-15    0.1454591847E-14   -0.8000000000E+01
    0.6736210030E-03    0.2330995334E-15    0.1555736573E-14   -0.8000000000E+01
    0.6850360430E-03    0.2493002481E-15    0.1663898862E-14   -0.8000000000E+01
    0.6966429279E-03    0.2666243939E-15    0.1779564800E-14   -0.8000000000E+01
    0.7084448820E-03    0.2851497398E-15    0.1903254097E-14   -0.8000000000E+01
    0.7204451837E-03    0.3049594309E-15    0.2035522419E-14   -0.8000000000E+01
    0.7326471664E-03    0.3261423600E-15    0.2176963866E-14   -0.8000000000E+01
    0.7450542196E-03    0.3487935643E-15    0.2328213630E-14   -0.8000000000E+01
    0.7576697899E-03    0.3730146494E-15    0.2489950842E-14   -0.8000000000E+01
    0.7704973816E-03    0.3989142435E-15    0.2662901595E-14   -0.8000000000E+01
    0.7835405580E-03    0.4266084814E-15    0.2847842200E-14   -0.8000000000E+01
    0.7968029424E-03    0.4562215234E-15    0.3045602654E-14   -0.8000000000E+01
    0.8102882188E-03    0.4878861090E-15    0.3257070344E-14   -0.8000000000E+01
    0.8240001332E-03    0.5217441492E-15    0.3483194018E-14   -0.8000000000E+01
    0.8379424946E-03    0.5579473597E-15    0.3724988023E-14   -0.8000000000E+01
    0.8521191759E-03    0.5966579372E-15    0.3983536835E-14   -0.8000000000E+01
    0.8665341151E-03    0.6380492833E-15    0.4259999903E-14   -0.8000000000E+01
    0.8811913167E-03    0.6823067775E-15    0.4555616840E-14   -0.8000000000E+01
    0.8960948520E-03    0.7296286038E-15    0.4871712939E-14   -0.8000000000E+01
    0.9112488610E-03    0.7802266344E-15    0.5209705109E-14   -0.8000000000E+01
    0.9266575533E-03    0.8343273743E-15    0.5571108199E-14   -0.8000000000E+01
    0.9423252092E-03    0.8921729705E-15    0.5957541760E-14   -0.8000000000E+01
    0.9582561809E-03    0.9540222920E-15    0.6370737278E-14   -0.8000000000E+01
    0.9744548937E-03    0.1020152083E-14    0.6812545901E-14   -0.8000000000E+01
    0.9909258475E-03    0.1090858195E-14    0.7284946717E-14   -0.8000000000E+01
    0.1007673618E-02    0.1166456909E-14    0.7790055582E-14   -0.8000000000E+01
    0.1024702856E-02    0.1247286337E-14    0.8330134510E-14   -0.8000000000E+01
    0.1042018294E-02    0.1333707938E-14    0.8907601927E-14   -0.8000000000E+01
    0.1059624740E-02    0.1426108119E-14    0.9525043234E-14   -0.8000000000E+01
    0.1077527087E-02    0.1524899962E-14    0.1018522261E-13   -0.8000000000E+01
    0.1095730306E-02    0.1630525061E-14    0.1089109506E-13   -0.8000000000E+01
    0.1114239454E-02    0.1743455486E-14    0.1164581983E-13   -0.8000000000E+01
    0.1133059674E-02    0.1864195891E-14    0.1245277448E-13   -0.8000000000E+01
    0.1152196192E-02    0.1993285755E-14    0.1331556973E-13   -0.8000000000E+01
    0.1171654325E-02    0.2131301787E-14    0.1423806589E-13   -0.8000000000E+01
    0.1191439477E-02    0.2278860490E-14    0.1522438978E-13   -0.8000000000E+01
    0.1211557146E-02    0.2436620906E-14    0.1627895349E-13   -0.8000000000E+01
    0.1232012918E-02    0.2605287551E-14    0.1740647357E-13   -0.8000000000E+01
    0.1252812477E-02    0.2785613544E-14    0.1861199259E-13   -0.8000000000E+01
    0.1273961600E-02    0.2978403966E-14    0.1990090124E-13   -0.8000000000E+01
    0.1295466163E-02    0.3184519432E-14    0.2127896264E-13   -0.8000000000E+01
    0.1317332138E-02    0.3404879928E-14    0.2275233771E-13   -0.8000000000E+01
    0.1339565600E-02    0.3640468897E-14    0.2432761303E-13   -0.8000000000E+01
    0.1362172725E-02    0.3892337617E-14    0.2601182994E-13   -0.8000000000E+01
    0.1385159793E-02    0.4161609869E-14    0.2781251601E-13   -0.8000000000E+01
    0.1408533189E-02    0.4449486944E-14    0.2973771857E-13   -0.8000000000E+01
    0.1432299406E-02    0.4757252975E-14    0.3179604065E-13   -0.8000000000E+01
    0.1456465046E-02    0.5086280650E-14    0.3399667927E-13   -0.8000000000E+01
    0.1481036821E-02    0.5438037313E-14    0.3634946638E-13   -0.8000000000E+01
    0.1506021558E-02    0.5814091484E-14    0.3886491291E-13   -0.8000000000E+01
    0.1531426197E-02    0.6216119834E-14    0.4155425532E-13   -0.8000000000E+01
    0.1557257795E-02    0.6645914631E-14    0.4442950582E-13   -0.8000000000E+01
    0.1583523527E-02    0.7105391707E-14    0.4750350579E-13   -0.8000000000E+01
    0.1610230689E-02    0.7596598968E-14    0.5078998313E-13   -0.8000000000E+01
    0.1637386701E-02    0.8121725492E-14    0.5430361354E-13   -0.8000000000E+01
    0.1664999106E-02    0.8683111254E-14    0.5806008554E-13   -0.8000000000E+01
    0.1693075574E-02    0.9283257516E-14    0.6207617056E-13   -0.8000000000E+01
    0.1721623904E-02    0.9924837940E-14    0.6636979764E-13   -0.8000000000E+01
    0.1750652027E-02    0.1061071046E-13    0.7096013346E-13   -0.8000000000E+01
    0.1780168006E-02    0.1134392995E-13    0.7586766734E-13   -0.8000000000E+01
    0.1810180041E-02    0.1212776184E-13    0.8111430291E-13   -0.8000000000E+01
    0.1840696467E-02    0.1296569655E-13    0.8672345499E-13   -0.8000000000E+01
    0.1871725763E-02    0.1386146503E-13    0.9272015500E-13   -0.8000000000E+01
    0.1903276548E-02    0.1481905528E-13    0.9913116128E-13   -0.8000000000E+01
    0.1935357585E-02    0.1584273009E-13    0.1059850785E-12   -0.8000000000E+01
    0.1967977787E-02    0.1693704593E-13    0.1133124858E-12   -0.8000000000E+01
    0.2001146215E-02    0.1810687315E-13    0.1211460718E-12   -0.8000000000E+01
    0.2034872082E-02    0.1935741763E-13    0.1295207809E-12   -0.8000000000E+01
    0.2069164758E-02    0.2069424385E-13    0.1384739689E-12   -0.8000000000E+01
    0.2104033767E-02    0.2212329956E-13    0.1480455680E-12   -0.8000000000E+01
    0.2139488797E-02    0.2365094218E-13    0.1582782668E-12   -0.8000000000E+01
    0.2175539695E-02    0.2528396698E-13    0.1692176977E-12   -0.8000000000E+01
    0.2212196477E-02    0.2702963721E-13    0.1809126426E-12   -0.8000000000E+01
    0.2249469325E-02    0.2889571631E-13    0.1934152477E-12   -0.8000000000E+01
    0.2287368592E-02    0.3089050231E-13    0.2067812564E-12   -0.8000000000E+01
    0.2325904807E-02    0.3302286464E-13    0.2210702584E-12   -0.8000000000E+01
    0.2365088675E-02    0.3530228342E-13    0.2363459533E-12   -0.8000000000E+01
    0.2404931079E-02    0.3773889145E-13    0.2526764339E-12   -0.8000000000E+01
    0.2445443089E-02    0.4034351916E-13    0.2701344914E-12   -0.8000000000E+01
    0.2486635956E-02    0.4312774255E-13    0.2887979355E-12   -0.8000000000E+01
    0.2528521124E-02    0.4610393451E-13    0.3087499440E-12   -0.8000000000E+01
    0.2571110229E-02    0.4928531958E-13    0.3300794315E-12   -0.8000000000E+01
    0.2614415099E-02    0.5268603256E-13    0.3528814426E-12   -0.8000000000E+01
    0.2658447766E-02    0.5632118110E-13    0.3772575794E-12   -0.8000000000E+01
    0.2703220461E-02    0.6020691258E-13    0.4033164488E-12   -0.8000000000E+01
    0.2748745620E-02    0.6436048560E-13    0.4311741466E-12   -0.8000000000E+01
    0.2795035890E-02    0.6880034640E-13    0.4609547754E-12   -0.8000000000E+01
    0.2842104129E-02    0.7354621050E-13    0.4927909939E-12   -0.8000000000E+01
    0.2889963413E-02    0.7861914994E-13    0.5268246091E-12   -0.8000000000E+01
    0.2938627036E-02    0.8404168656E-13    0.5632072043E-12   -0.8000000000E+01
    0.2988108515E-02    0.8983789162E-13    0.6021008128E-12   -0.8000000000E+01
    0.3038421597E-02    0.9603349231E-13    0.6436786418E-12   -0.8000000000E+01
    0.3089580257E-02    0.1026559855E-12    0.6881258364E-12   -0.8000000000E+01
    0.3141598707E-02    0.1097347596E-12    0.7356403072E-12   -0.8000000000E+01
    0.3194491396E-02    0.1173012240E-12    0.7864336055E-12   -0.8000000000E+01
    0.3248273016E-02    0.1253889485E-12    0.8407318657E-12   -0.8000000000E+01
    0.3302958509E-02    0.1340338115E-12    0.8987768118E-12   -0.8000000000E+01
    0.3358563063E-02    0.1432741586E-12    0.9608268237E-12   -0.8000000000E+01
    0.3415102127E-02    0.1531509720E-12    0.1027158096E-11   -0.8000000000E+01
    0.3472591404E-02    0.1637080518E-12    0.1098065850E-11   -0.8000000000E+01
    0.3531046866E-02    0.1749922095E-12    0.1173865662E-11   -0.8000000000E+01
    0.3590484749E-02    0.1870534744E-12    0.1254894846E-11   -0.8000000000E+01
    0.3650921565E-02    0.1999453155E-12    0.1341513966E-11   -0.8000000000E+01
    0.3712374102E-02    0.2137248766E-12    0.1434108430E-11   -0.8000000000E+01
    0.3774859430E-02    0.2284532294E-12    0.1533090200E-11   -0.8000000000E+01
    0.3838394908E-02    0.2441956429E-12    0.1638899623E-11   -0.8000000000E+01
    0.3902998184E-02    0.2610218715E-12    0.1752007382E-11   -0.8000000000E+01
    0.3968687203E-02    0.2790064631E-12    0.1872916586E-11   -0.8000000000E+01
    0.4035480215E-02    0.2982290876E-12    0.2002165008E-11   -0.8000000000E+01
    0.4103395771E-02    0.3187748892E-12    0.2140327453E-11   -0.8000000000E+01
    0.4172452739E-02    0.3407348615E-12    0.2288018328E-11   -0.8000000000E+01
    0.4242670301E-02    0.3642062489E-12    0.2445894353E-11   -0.8000000000E+01
    0.4314067963E-02    0.3892929758E-12    0.2614657480E-11   -0.8000000000E+01
    0.4386665558E-02    0.4161061047E-12    0.2795058000E-11   -0.8000000000E+01
    0.4460483251E-02    0.4447643260E-12    0.2987897867E-11   -0.8000000000E+01
    0.4535541549E-02    0.4753944807E-12    0.3194034263E-11   -0.8000000000E+01
    0.4611861302E-02    0.5081321204E-12    0.3414383387E-11   -0.8000000000E+01
    0.4689463709E-02    0.5431221036E-12    0.3649924511E-11   -0.8000000000E+01
    0.4768370329E-02    0.5805192346E-12    0.3901704335E-11   -0.8000000000E+01
    0.4848603079E-02    0.6204889454E-12    0.4170841599E-11   -0.8000000000E+01
    0.4930184247E-02    0.6632080238E-12    0.4458532056E-11   -0.8000000000E+01
    0.5013136495E-02    0.7088653926E-12    0.4766053759E-11   -0.8000000000E+01
    0.5097482866E-02    0.7576629405E-12    0.5094772719E-11   -0.8000000000E+01
    0.5183246790E-02    0.8098164118E-12    0.5446148949E-11   -0.8000000000E+01
    0.5270452091E-02    0.8655563549E-12    0.5821742929E-11   -0.8000000000E+01
    0.5359122993E-02    0.9251291373E-12    0.6223222503E-11   -0.8000000000E+01
    0.5449284128E-02    0.9887980292E-12    0.6652370265E-11   -0.8000000000E+01
    0.5540960540E-02    0.1056844362E-11    0.7111091426E-11   -0.8000000000E+01
    0.5634177696E-02    0.1129568763E-11    0.7601422257E-11   -0.8000000000E+01
    0.5728961491E-02    0.1207292483E-11    0.8125539083E-11   -0.8000000000E+01
    0.5825338254E-02    0.1290358799E-11    0.8685767890E-11   -0.8000000000E+01
    0.5923334756E-02    0.1379134533E-11    0.9284594603E-11   -0.8000000000E+01
    0.6022978220E-02    0.1474011656E-11    0.9924676087E-11   -0.8000000000E+01
    0.6124296324E-02    0.1575409014E-11    0.1060885185E-10   -0.8000000000E+01
    0.6227317215E-02    0.1683774165E-11    0.1134015660E-10   -0.8000000000E+01
    0.6332069508E-02    0.1799585346E-11    0.1212183362E-10   -0.8000000000E+01
    0.6438582303E-02    0.1923353571E-11    0.1295734910E-10   -0.8000000000E+01
    0.6546885188E-02    0.2055624874E-11    0.1385040741E-10   -0.8000000000E+01
    0.6657008246E-02    0.2196982705E-11    0.1480496742E-10   -0.8000000000E+01
    0.6768982069E-02    0.2348050490E-11    0.1582525998E-10   -0.8000000000E+01
    0.6882837761E-02    0.2509494362E-11    0.1691580655E-10   -0.8000000000E+01
    0.6998606949E-02    0.2682026086E-11    0.1808143910E-10   -0.8000000000E+01
    0.7116321792E-02    0.2866406176E-11    0.1932732143E-10   -0.8000000000E+01
    0.7236014991E-02    0.3063447228E-11    0.2065897189E-10   -0.8000000000E+01
    0.7357719792E-02    0.3274017481E-11    0.2208228757E-10   -0.8000000000E+01
    0.7481470005E-02    0.3499044617E-11    0.2360357041E-10   -0.8000000000E+01
    0.7607300004E-02    0.3739519827E-11    0.2522955475E-10   -0.8000000000E+01
    0.7735244744E-02    0.3996502148E-11    0.2696743703E-10   -0.8000000000E+01
    0.7865339766E-02    0.4271123097E-11    0.2882490735E-10   -0.8000000000E+01
    0.7997621208E-02    0.4564591621E-11    0.3081018327E-10   -0.8000000000E+01
    0.8132125815E-02    0.4878199388E-11    0.3293204585E-10   -0.8000000000E+01
    0.8268890951E-02    0.5213326431E-11    0.3519987822E-10   -0.8000000000E+01
    0.8407954607E-02    0.5571447182E-11    0.3762370666E-10   -0.8000000000E+01
    0.8549355413E-02    0.5954136916E-11    0.4021424463E-10   -0.8000000000E+01
    0.8693132647E-02    0.6363078633E-11    0.4298293960E-10   -0.8000000000E+01
    0.8839326250E-02    0.6800070405E-11    0.4594202330E-10   -0.8000000000E+01
    0.8987976830E-02    0.7267033229E-11    0.4910456509E-10   -0.8000000000E+01
    0.9139125681E-02    0.7766019412E-11    0.5248452925E-10   -0.8000000000E+01
    0.9292814790E-02    0.8299221524E-11    0.5609683598E-10   -0.8000000000E+01
    0.9449086848E-02    0.8868981961E-11    0.5995742649E-10   -0.8000000000E+01
    0.9607985266E-02    0.9477803160E-11    0.6408333275E-10   -0.8000000000E+01
    0.9769554184E-02    0.1012835850E-10    0.6849275166E-10   -0.8000000000E+01
    0.9933838482E-02    0.1082350398E-10    0.7320512442E-10   -0.8000000000E+01
    0.1010088380E-01    0.1156629059E-10    0.7824122137E-10   -0.8000000000E+01
    0.1027073653E-01    0.1235997770E-10    0.8362323184E-10   -0.8000000000E+01
    0.1044344386E-01    0.1320804713E-10    0.8937486160E-10   -0.8000000000E+01
    0.1061905377E-01    0.1411421841E-10    0.9552143544E-10   -0.8000000000E+01
    0.1079761504E-01    0.1508246487E-10    0.1020900069E-09   -0.8000000000E+01
    0.1097917727E-01    0.1611703098E-10    0.1091094761E-09   -0.8000000000E+01
    0.1116379090E-01    0.1722245074E-10    0.1166107148E-09   -0.8000000000E+01
    0.1135150720E-01    0.1840356745E-10    0.1246266999E-09   -0.8000000000E+01
    0.1154237832E-01    0.1966555466E-10    0.1331926570E-09   -0.8000000000E+01
    0.1173645729E-01    0.2101393869E-10    0.1423462125E-09   -0.8000000000E+01
    0.1193379801E-01    0.2245462261E-10    0.1521275549E-09   -0.8000000000E+01
    0.1213445530E-01    0.2399391180E-10    0.1625796099E-09   -0.8000000000E+01
    0.1233848491E-01    0.2563854133E-10    0.1737482252E-09   -0.8000000000E+01
    0.1254594351E-01    0.2739570513E-10    0.1856823667E-09   -0.8000000000E+01
    0.1275688872E-01    0.2927308717E-10    0.1984343298E-09   -0.8000000000E+01
    0.1297137915E-01    0.3127889473E-10    0.2120599655E-09   -0.8000000000E+01
    0.1318947438E-01    0.3342189390E-10    0.2266189178E-09   -0.8000000000E+01
    0.1341123499E-01    0.3571144753E-10    0.2421748806E-09   -0.8000000000E+01
    0.1363672257E-01    0.3815755572E-10    0.2587958693E-09   -0.8000000000E+01
    0.1386599978E-01    0.4077089903E-10    0.2765545147E-09   -0.8000000000E+01
    0.1409913030E-01    0.4356288464E-10    0.2955283688E-09   -0.8000000000E+01
    0.1433617888E-01    0.4654569558E-10    0.3158002370E-09   -0.8000000000E+01
    0.1457721139E-01    0.4973234335E-10    0.3374585334E-09   -0.8000000000E+01
    0.1482229476E-01    0.5313672402E-10    0.3605976502E-09   -0.8000000000E+01
    0.1507149708E-01    0.5677367819E-10    0.3853183650E-09   -0.8000000000E+01
    0.1532488759E-01    0.6065905489E-10    0.4117282657E-09   -0.8000000000E+01
    0.1558253665E-01    0.6480977991E-10    0.4399421999E-09   -0.8000000000E+01
    0.1584451586E-01    0.6924392862E-10    0.4700827706E-09   -0.8000000000E+01
    0.1611089797E-01    0.7398080377E-10    0.5022808408E-09   -0.8000000000E+01
    0.1638175698E-01    0.7904101852E-10    0.5366760924E-09   -0.8000000000E+01
    0.1665716815E-01    0.8444658501E-10    0.5734176124E-09   -0.8000000000E+01
    0.1693720796E-01    0.9022100891E-10    0.6126645087E-09   -0.8000000000E+01
    0.1722195422E-01    0.9638939039E-10    0.6545865875E-09   -0.8000000000E+01
    0.1751148601E-01    0.1029785318E-09    0.6993650498E-09   -0.8000000000E+01
    0.1780588377E-01    0.1100170525E-09    0.7471932555E-09   -0.8000000000E+01
    0.1810522928E-01    0.1175355119E-09    0.7982775200E-09   -0.8000000000E+01
    0.1840960569E-01    0.1255665397E-09    0.8528379694E-09   -0.8000000000E+01
    0.1871909755E-01    0.1341449763E-09    0.9111094512E-09   -0.8000000000E+01
    0.1903379083E-01    0.1433080212E-09    0.9733425007E-09   -0.8000000000E+01
    0.1935377295E-01    0.1530953925E-09    0.1039804372E-08   -0.8000000000E+01
    0.1967913280E-01    0.1635494966E-09    0.1110780134E-08   -0.8000000000E+01
    0.2000996075E-01    0.1747156088E-09    0.1186573826E-08   -0.8000000000E+01
    0.2034634870E-01    0.1866420669E-09    0.1267509709E-08   -0.8000000000E+01
    0.2068839010E-01    0.1993804774E-09    0.1353933576E-08   -0.8000000000E+01
    0.2103617996E-01    0.2129859350E-09    0.1446214147E-08   -0.8000000000E+01
    0.2138981490E-01    0.2275172577E-09    0.1544744567E-08   -0.8000000000E+01
    0.2174939314E-01    0.2430372367E-09    0.1649943968E-08   -0.8000000000E+01
    0.2211501457E-01    0.2596129036E-09    0.1762259166E-08   -0.8000000000E+01
    0.2248678075E-01    0.2773158152E-09    0.1882166432E-08   -0.8000000000E+01
    0.2286479496E-01    0.2962223574E-09    0.2010173389E-08   -0.8000000000E+01
    0.2324916220E-01    0.3164140692E-09    0.2146821014E-08   -0.8000000000E+01
    0.2363998924E-01    0.3379779887E-09    0.2292685773E-08   -0.8000000000E+01
    0.2403738466E-01    0.3610070214E-09    0.2448381888E-08   -0.8000000000E+01
    0.2444145883E-01    0.3856003340E-09    0.2614563714E-08   -0.8000000000E+01
    0.2485232400E-01    0.4118637734E-09    0.2791928302E-08   -0.8000000000E+01
    0.2527009431E-01    0.4399103145E-09    0.2981218087E-08   -0.8000000000E+01
    0.2569488581E-01    0.4698605373E-09    0.3183223738E-08   -0.8000000000E+01
    0.2612681649E-01    0.5018431352E-09    0.3398787177E-08   -0.8000000000E+01
    0.2656600635E-01    0.5359954585E-09    0.3628804800E-08   -0.8000000000E+01
    0.2701257737E-01    0.5724640922E-09    0.3874230831E-08   -0.8000000000E+01
    0.2746665361E-01    0.6114054735E-09    0.4136080942E-08   -0.8000000000E+01
    0.2792836121E-01    0.6529865495E-09    0.4415436025E-08   -0.8000000000E+01
    0.2839782842E-01    0.6973854787E-09    0.4713446197E-08   -0.8000000000E+01
    0.2887518565E-01    0.7447923791E-09    0.5031335040E-08   -0.8000000000E+01
    0.2936056550E-01    0.7954101254E-09    0.5370404068E-08   -0.8000000000E+01
    0.2985410281E-01    0.8494551992E-09    0.5732037460E-08   -0.8000000000E+01
    0.3035593467E-01    0.9071585952E-09    0.6117707018E-08   -0.8000000000E+01
    0.3086620048E-01    0.9687667876E-09    0.6528977433E-08   -0.8000000000E+01
    0.3138504198E-01    0.1034542760E-08    0.6967511818E-08   -0.8000000000E+01
    0.3191260331E-01    0.1104767102E-08    0.7435077547E-08   -0.8000000000E+01
    0.3244903101E-01    0.1179739182E-08    0.7933552366E-08   -0.8000000000E+01
    0.3299447409E-01    0.1259778392E-08    0.8464930865E-08   -0.8000000000E+01
    0.3354908406E-01    0.1345225478E-08    0.9031331258E-08   -0.8000000000E+01
    0.3411301499E-01    0.1436443956E-08    0.9635002525E-08   -0.8000000000E+01
    0.3468642354E-01    0.1533821623E-08    0.1027833189E-07   -0.8000000000E+01
    0.3526946897E-01    0.1637772163E-08    0.1096385260E-07   -0.8000000000E+01
    0.3586231327E-01    0.1748736868E-08    0.1169425229E-07   -0.8000000000E+01
    0.3646512109E-01    0.1867186456E-08    0.1247238141E-07   -0.7974481343E+01
    0.3707805991E-01    0.1993623025E-08    0.1330126242E-07   -0.7946628050E+01
    0.3770129998E-01    0.2128582123E-08    0.1418409900E-07   -0.7918814165E+01
    0.3833501442E-01    0.2272634961E-08    0.1512428601E-07   -0.7891041075E+01
    0.3897937928E-01    0.2426390764E-08    0.1612541967E-07   -0.7863310218E+01
    0.3963457355E-01    0.2590499278E-08    0.1719130821E-07   -0.7835623082E+01
    0.4030077923E-01    0.2765653449E-08    0.1832598295E-07   -0.7807981211E+01
    0.4097818139E-01    0.2952592258E-08    0.1953370981E-07   -0.7780386202E+01
    0.4166696819E-01    0.3152103761E-08    0.2081900119E-07   -0.7752839713E+01
    0.4236733096E-01    0.3365028314E-08    0.2218662836E-07   -0.7725343459E+01
    0.4307946427E-01    0.3592262012E-08    0.2364163425E-07   -0.7697899221E+01
    0.4380356592E-01    0.3834760350E-08    0.2518934646E-07   -0.7670508842E+01
    0.4453983706E-01    0.4093542124E-08    0.2683539090E-07   -0.7643174233E+01
    0.4528848222E-01    0.4369693583E-08    0.2858570566E-07   -0.7615897375E+01
    0.4604970936E-01    0.4664372851E-08    0.3044655521E-07   -0.7588680324E+01
    0.4682372993E-01    0.4978814636E-08    0.3242454491E-07   -0.7561525209E+01
    0.4761075895E-01    0.5314335242E-08    0.3452663588E-07   -0.7534434239E+01
    0.4841101504E-01    0.5672337906E-08    0.3676015993E-07   -0.7507409703E+01
    0.4922472049E-01    0.6054318478E-08    0.3913283475E-07   -0.7480453979E+01
    0.5005210135E-01    0.6461871471E-08    0.4165277929E-07   -0.7453569530E+01
    0.5089338745E-01    0.6896696500E-08    0.4432852895E-07   -0.7426758912E+01
    0.5174881248E-01    0.7360605128E-08    0.4716905090E-07   -0.7400024778E+01
    0.5261861406E-01    0.7855528167E-08    0.5018375919E-07   -0.7373369881E+01
    0.5350303381E-01    0.8383523433E-08    0.5338252963E-07   -0.7346797077E+01
    0.5440231742E-01    0.8946784009E-08    0.5677571437E-07   -0.7320309332E+01
    0.5531671468E-01    0.9547647037E-08    0.6037415563E-07   -0.7293909722E+01
    0.5624647961E-01    0.1018860306E-07    0.6418919936E-07   -0.7267601444E+01
    0.5719187047E-01    0.1087230600E-07    0.6823270742E-07   -0.7241387818E+01
    0.5815314988E-01    0.1160158370E-07    0.7251706926E-07   -0.7215272290E+01
    0.5913058488E-01    0.1237944922E-07    0.7705521213E-07   -0.7189258440E+01
    0.6012444696E-01    0.1320911284E-07    0.8186060959E-07   -0.7163349990E+01
    0.6113501223E-01    0.1409399475E-07    0.8694728907E-07   -0.7137550805E+01
    0.6216256138E-01    0.1503773863E-07    0.9232983630E-07   -0.7111864906E+01
    0.6320737987E-01    0.1604422610E-07    0.9802339865E-07   -0.7086296470E+01
    0.6426975792E-01    0.1711759201E-07    0.1040436848E-06   -0.7060849841E+01
    0.6534999065E-01    0.1826224077E-07    0.1104069620E-06   -0.7035529540E+01
    0.6644837813E-01    0.1948286367E-07    0.1171300499E-06   -0.7010340267E+01
    0.6756522547E-01    0.2078445737E-07    0.1242303103E-06   -0.6985286915E+01
    0.6870084291E-01    0.2217234343E-07    0.1317256328E-06   -0.6960374578E+01
    0.6985554592E-01    0.2365218921E-07    0.1396344160E-06   -0.6935608557E+01
    0.7102965525E-01    0.2523002998E-07    0.1479755425E-06   -0.6910994377E+01
    0.7222349704E-01    0.2691229251E-07    0.1567683492E-06   -0.6886537789E+01
    0.7343740294E-01    0.2870582008E-07    0.1660325909E-06   -0.6862244792E+01
    0.7467171014E-01    0.3061789909E-07    0.1757883962E-06   -0.6838121636E+01
    0.7592676151E-01    0.3265628733E-07    0.1860562163E-06   -0.6814174841E+01
    0.7720290569E-01    0.3482924404E-07    0.1968567663E-06   -0.6790411209E+01
    0.7850049718E-01    0.3714556182E-07    0.2082109555E-06   -0.6766837839E+01
    0.7981989641E-01    0.3961460055E-07    0.2201398102E-06   -0.6743462142E+01
    0.8116146990E-01    0.4224632345E-07    0.2326643844E-06   -0.6720291862E+01
    0.8252559032E-01    0.4505133536E-07    0.2458056609E-06   -0.6697335088E+01
    0.8391263660E-01    0.4804092338E-07    0.2595844391E-06   -0.6674600282E+01
    0.8532299404E-01    0.5122710013E-07    0.2740212111E-06   -0.6652096293E+01
    0.8675705441E-01    0.5462264957E-07    0.2891360250E-06   -0.6629832382E+01
    0.8821521607E-01    0.5824117575E-07    0.3049483334E-06   -0.6607818250E+01
    0.8969788408E-01    0.6209715458E-07    0.3214768285E-06   -0.6586064060E+01
    0.9120547030E-01    0.6620598871E-07    0.3387392615E-06   -0.6564580468E+01
    0.9273839351E-01    0.7058406594E-07    0.3567522477E-06   -0.6543378656E+01
    0.9429707953E-01    0.7524882110E-07    0.3755310554E-06   -0.6522470361E+01
    0.9588196135E-01    0.8021880179E-07    0.3950893801E-06   -0.6501867918E+01
    0.9749347921E-01    0.8551373820E-07    0.4154391019E-06   -0.6481584296E+01
    0.9913208078E-01    0.9115461717E-07    0.4365900295E-06   -0.6461633143E+01
    0.1007982212E+00    0.9716376079E-07    0.4585496283E-06   -0.6442028835E+01
    0.1024923634E+00    0.1035649098E-06    0.4813227372E-06   -0.6422786528E+01
    0.1042149778E+00    0.1103833122E-06    0.5049112670E-06   -0.6403922219E+01
    0.1059665431E+00    0.1176458171E-06    0.5293139006E-06   -0.6385452802E+01
    0.1077475458E+00    0.1253809743E-06    0.5545257696E-06   -0.6367396150E+01
    0.1095584806E+00    0.1336191401E-06    0.5805381363E-06   -0.6349771185E+01
    0.1113998506E+00    0.1423925895E-06    0.6073380708E-06   -0.6332597969E+01
    0.1132721672E+00    0.1517356349E-06    0.6349081259E-06   -0.6315897800E+01
    0.1151759506E+00    0.1616847524E-06    0.6632260279E-06   -0.6299693320E+01
    0.1171117296E+00    0.1722787155E-06    0.6922643679E-06   -0.6284008639E+01
    0.1190800420E+00    0.1835587371E-06    0.7219903233E-06   -0.6268869471E+01
    0.1210814345E+00    0.1955686194E-06    0.7523653959E-06   -0.6254303288E+01
    0.1231164630E+00    0.2083549139E-06    0.7833451930E-06   -0.6240339497E+01
    0.1251856929E+00    0.2219670901E-06    0.8148792534E-06   -0.6227009640E+01
    0.1272896990E+00    0.2364577147E-06    0.8469109223E-06   -0.6214347620E+01
    0.1294290656E+00    0.2518826414E-06    0.8793772998E-06   -0.6202389967E+01
    0.1316043872E+00    0.2683012122E-06    0.9122092788E-06   -0.6191176134E+01
    0.1338162680E+00    0.2857764706E-06    0.9453316636E-06   -0.6180748856E+01
    0.1360653223E+00    0.3043753877E-06    0.9786634153E-06   -0.6171154551E+01
    0.1383521750E+00    0.3241691012E-06    0.1012118031E-05   -0.6162443801E+01
    0.1406774613E+00    0.3452331695E-06    0.1045604060E-05   -0.6154671913E+01
    0.1430418272E+00    0.3676478399E-06    0.1079025807E-05   -0.6147899590E+01
    0.1454459293E+00    0.3914983334E-06    0.1112284217E-05   -0.6142193728E+01
    0.1478904356E+00    0.4168751461E-06    0.1145277984E-05   -0.6137628371E+01
    0.1503760251E+00    0.4438743682E-06    0.1177904893E-05   -0.6134285880E+01
    0.1529033882E+00    0.4725980223E-06    0.1210063425E-05   -0.6132258349E+01
    0.1554732270E+00    0.5031544208E-06    0.1241654653E-05   -0.6131649364E+01
    0.1580862553E+00    0.5356585453E-06    0.1272584442E-05   -0.6132576181E+01
    0.1607431991E+00    0.5702324471E-06    0.1302765984E-05   -0.6135172488E+01
    0.1634447964E+00    0.6070056727E-06    0.1332122680E-05   -0.6139591908E+01
    0.1661917976E+00    0.6461157123E-06    0.1360591398E-05   -0.6146012546E+01
    0.1689849658E+00    0.6877084762E-06    0.1388126110E-05   -0.6154642928E+01
    0.1718250769E+00    0.7319387979E-06    0.1414701931E-05   -0.6165729938E+01
    0.1747129198E+00    0.7789709671E-06    0.1440319542E-05   -0.6179569578E+01
    0.1776492968E+00    0.8289792931E-06    0.1465010031E-05   -0.6196521896E+01
    0.1806350235E+00    0.8821487014E-06    0.1488840095E-05   -0.6217032166E+01
    0.1836709294E+00    0.9386753650E-06    0.1511917629E-05   -0.6241661798E+01
    0.1867578576E+00    0.9987673716E-06    0.1534397634E-05   -0.6271134894E+01
    0.1898966658E+00    0.1062645430E-05    0.1556488425E-05   -0.6306411102E+01
    0.1930882259E+00    0.1130543617E-05    0.1578458057E-05   -0.6348804937E+01
    0.1963334243E+00    0.1202710169E-05    0.1600640918E-05   -0.6400192501E+01
    0.1996331627E+00    0.1279408313E-05    0.1623444378E-05   -0.6463396028E+01
    0.2029883575E+00    0.1360917156E-05    0.1647355392E-05   -0.6542969010E+01
    0.2063999408E+00    0.1447532617E-05    0.1672946916E-05   -0.6647018537E+01
    0.2098688604E+00    0.1539568414E-05    0.1700884006E-05   -0.6792323654E+01
    0.2133960797E+00    0.1637357109E-05    0.1731929388E-05   -0.7024236143E+01
    0.2169825787E+00    0.1741251217E-05    0.1766948358E-05   -0.7590115185E+01
    0.2206293535E+00    0.1851624366E-05    0.1806912743E-05   -0.7349579567E+01
    0.2243374173E+00    0.1968872540E-05    0.1852903741E-05   -0.6935658839E+01
    0.2281078000E+00    0.2093415377E-05    0.1906113355E-05   -0.6727457535E+01
    0.2319415490E+00    0.2225697555E-05    0.1967844204E-05   -0.6588627221E+01
    0.2358397292E+00    0.2366190245E-05    0.2039507408E-05   -0.6485873682E+01
    0.2398034236E+00    0.2515392656E-05    0.2122618327E-05   -0.6405856905E+01
    0.2438337331E+00    0.2673833661E-05    0.2218789869E-05   -0.6341946806E+01
    0.2479317773E+00    0.2842073522E-05    0.2329723169E-05   -0.6290432960E+01
    0.2520986946E+00    0.3020705706E-05    0.2457195425E-05   -0.6249098156E+01
    0.2563356425E+00    0.3210358812E-05    0.2603044727E-05   -0.6216586647E+01
    0.2606437979E+00    0.3411698598E-05    0.2769151809E-05   -0.6192095242E+01
    0.2650243577E+00    0.3625430130E-05    0.2957418699E-05   -0.6175216106E+01
    0.2694785385E+00    0.3852300050E-05    0.3169744300E-05   -0.6165861871E+01
    0.2740075778E+00    0.4093098974E-05    0.3407997188E-05   -0.6164244901E+01
    0.2786127336E+00    0.4348664018E-05    0.3673985788E-05   -0.6170903303E+01
    0.2832952852E+00    0.4619881480E-05    0.3969426519E-05   -0.6186782770E+01
    0.2880565333E+00    0.4907689657E-05    0.4295910428E-05   -0.6213405272E+01
    0.2928978006E+00    0.5213081836E-05    0.4654869134E-05   -0.6253200285E+01
    0.2978204317E+00    0.5537109439E-05    0.5047540978E-05   -0.6310186569E+01
    0.3028257942E+00    0.5880885357E-05    0.5474938638E-05   -0.6391530965E+01
    0.3079152785E+00    0.6245587459E-05    0.5937819316E-05   -0.6511776337E+01
    0.3130902984E+00    0.6632462307E-05    0.6436659130E-05   -0.6708180267E+01
    0.3183522913E+00    0.7042829075E-05    0.6971633201E-05   -0.7147545172E+01
    0.3237027190E+00    0.7478083682E-05    0.7542603230E-05   -0.7190308682E+01
    0.3291430678E+00    0.7939703164E-05    0.8149114205E-05   -0.6679000425E+01
    0.3346748489E+00    0.8429250286E-05    0.8790402059E-05   -0.6442310249E+01
    0.3402995989E+00    0.8948378404E-05    0.9465413977E-05   -0.6286479575E+01
    0.3460188804E+00    0.9498836611E-05    0.1017284285E-04   -0.6171336083E+01
    0.3518342819E+00    0.1008247515E-04    0.1091117707E-04   -0.6081601657E+01
    0.3577474190E+00    0.1070125115E-04    0.1167876678E-04   -0.6009876288E+01
    0.3637599343E+00    0.1135723467E-04    0.1247390685E-04   -0.5952074302E+01
    0.3698734979E+00    0.1205261505E-04    0.1329493645E-04   -0.5905766033E+01
    0.3760898080E+00    0.1278970769E-04    0.1414035464E-04   -0.5869458158E+01
    0.3824105915E+00    0.1357096110E-04    0.1500895017E-04   -0.5842244413E+01
    0.3888376042E+00    0.1439896446E-04    0.1589994316E-04   -0.5823625469E+01
    0.3953726314E+00    0.1527645550E-04    0.1681313530E-04   -0.5813416617E+01
    0.4020174884E+00    0.1620632887E-04    0.1774906435E-04   -0.5811708532E+01
    0.4087740211E+00    0.1719164498E-04    0.1870915779E-04   -0.5818867633E+01
    0.4156441063E+00    0.1823563933E-04    0.1969587954E-04   -0.5835575696E+01
    0.4226296524E+00    0.1934173235E-04    0.2071286323E-04   -0.5862921087E+01
    0.4297325999E+00    0.2051353980E-04    0.2176502481E-04   -0.5902574348E+01
    0.4369549219E+00    0.2175488381E-04    0.2285864706E-04   -0.5957124071E+01
    0.4442986247E+00    0.2306980443E-04    0.2400142885E-04   -0.6030759136E+01
    0.4517657481E+00    0.2446257200E-04    0.2520249221E-04   -0.6130815110E+01
    0.4593583664E+00    0.2593770006E-04    0.2647234146E-04   -0.6271937417E+01
    0.4670785888E+00    0.2749995913E-04    0.2782276971E-04   -0.6491052246E+01
    0.4749285599E+00    0.2915439122E-04    0.2926671013E-04   -0.6949547117E+01
    0.4829104601E+00    0.3090632519E-04    0.3081803153E-04   -0.7054070474E+01
    0.4910265068E+00    0.3276139302E-04    0.3249128065E-04   -0.6568455522E+01
    0.4992789544E+00    0.3472554697E-04    0.3430137620E-04   -0.6372459267E+01
    0.5076700954E+00    0.3680507784E-04    0.3626326358E-04   -0.6266149572E+01
    0.5162022607E+00    0.3900663417E-04    0.3839154166E-04   -0.6211059563E+01
    0.5248778204E+00    0.4133724269E-04    0.4070007709E-04   -0.6195747677E+01
    0.5336991844E+00    0.4380432988E-04    0.4320162377E-04   -0.6219894404E+01
    0.5426688032E+00    0.4641574485E-04    0.4590746794E-04   -0.6293899620E+01
    0.5517891683E+00    0.4917978356E-04    0.4882712048E-04   -0.6452640007E+01
    0.5610628133E+00    0.5210521444E-04    0.5196807924E-04   -0.6862851063E+01
    0.5704923143E+00    0.5520130561E-04    0.5533568289E-04   -0.6871674143E+01
    0.5800802905E+00    0.5847785360E-04    0.5893307657E-04   -0.6341775836E+01
    0.5898294055E+00    0.6194521388E-04    0.6276130626E-04   -0.6088260676E+01
    0.5997423673E+00    0.6561433318E-04    0.6681955336E-04   -0.5918933604E+01
    0.6098219296E+00    0.6949678367E-04    0.7110551626E-04   -0.5793516139E+01
    0.6200708924E+00    0.7360479931E-04    0.7561593720E-04   -0.5696558152E+01
    0.6304921026E+00    0.7795131422E-04    0.8034726527E-04   -0.5620522058E+01
    0.6410884551E+00    0.8255000348E-04    0.8529643801E-04   -0.5561230749E+01
    0.6518628935E+00    0.8741532627E-04    0.9046175444E-04   -0.5516209058E+01
    0.6628184105E+00    0.9256257165E-04    0.9584380480E-04   -0.5483962910E+01
    0.6739580497E+00    0.9800790704E-04    0.1014464157E-03   -0.5463629876E+01
    0.6852849053E+00    0.1037684297E-03    0.1072775613E-03   -0.5454800348E+01
    0.6968021237E+00    0.1098622209E-03    0.1133501908E-03   -0.5457427268E+01
    0.7085129044E+00    0.1163084043E-03    0.1196829202E-03   -0.5471788517E+01
    0.7204205003E+00    0.1231272064E-03    0.1263005368E-03   -0.5498484707E+01
    0.7325282192E+00    0.1303400218E-03    0.1332342748E-03   -0.5538463514E+01
    0.7448394244E+00    0.1379694817E-03    0.1405218245E-03   -0.5593061002E+01
    0.7573575358E+00    0.1460395269E-03    0.1482070533E-03   -0.5664035612E+01
    0.7700860307E+00    0.1545754848E-03    0.1563394284E-03   -0.5753515295E+01
    0.7830284449E+00    0.1636041511E-03    0.1649731516E-03   -0.5863596378E+01
    0.7961883736E+00    0.1731538764E-03    0.1741660308E-03   -0.5994753229E+01
    0.8095694724E+00    0.1832546578E-03    0.1839781355E-03   -0.6140574874E+01
    0.8231754584E+00    0.1939382361E-03    0.1944702987E-03   -0.6274037263E+01
    0.8370101110E+00    0.2052381985E-03    0.2057025446E-03   -0.6333158220E+01
    0.8510772734E+00    0.2171900876E-03    0.2177325332E-03   -0.6265643772E+01
    0.8653808532E+00    0.2298315164E-03    0.2306141226E-03   -0.6106456736E+01
    0.8799248237E+00    0.2432022905E-03    0.2443961497E-03   -0.5923046902E+01
    0.8947132249E+00    0.2573445372E-03    0.2591215310E-03   -0.5750314086E+01
    0.9097501649E+00    0.2723028420E-03    0.2748267707E-03   -0.5597922918E+01
    0.9250398207E+00    0.2881243928E-03    0.2915419491E-03   -0.5466284328E+01
    0.9405864395E+00    0.3048591332E-03    0.3092912428E-03   -0.5353389513E+01
    0.9563943399E+00    0.3225599242E-03    0.3280939989E-03   -0.5256954984E+01
    0.9724679131E+00    0.3412827143E-03    0.3479663537E-03   -0.5174986989E+01
    0.9888116241E+00    0.3610867211E-03    0.3689233535E-03   -0.5105870524E+01
    0.1005430013E+01    0.3820346214E-03    0.3909815003E-03   -0.5048328442E+01
    0.1022327696E+01    0.4041927533E-03    0.4141616123E-03   -0.5001354546E+01
    0.1039509367E+01    0.4276313293E-03    0.4384918632E-03   -0.4964148824E+01
    0.1056979799E+01    0.4524246608E-03    0.4640108386E-03   -0.4936059810E+01
    0.1074743844E+01    0.4786513963E-03    0.4907704358E-03   -0.4916531798E+01
    0.1092806438E+01    0.5063947714E-03    0.5188384390E-03   -0.4905051597E+01
    0.1111172598E+01    0.5357428739E-03    0.5483005819E-03   -0.4901089619E+01
    0.1129847426E+01    0.5667889228E-03    0.5792619688E-03   -0.4904027476E+01
    0.1148836109E+01    0.5996315623E-03    0.6118477179E-03   -0.4913065446E+01
    0.1168143922E+01    0.6343751727E-03    0.6462027573E-03   -0.4927103938E+01
    0.1187776229E+01    0.6711301967E-03    0.6824907340E-03   -0.4944601127E+01
    0.1207738483E+01    0.7100134850E-03    0.7208920603E-03   -0.4963427976E+01
    0.1228036228E+01    0.7511486587E-03    0.7616011828E-03   -0.4980778823E+01
    0.1248675105E+01    0.7946664917E-03    0.8048232171E-03   -0.4993246288E+01
    0.1269660845E+01    0.8407053136E-03    0.8507701030E-03   -0.4997195307E+01
    0.1290999279E+01    0.8894114327E-03    0.8996565739E-03   -0.4989482050E+01
    0.1312696333E+01    0.9409395819E-03    0.9516961420E-03   -0.4968326593E+01
    0.1334758035E+01    0.9954533873E-03    0.1007097441E-02   -0.4933895812E+01
    0.1357190514E+01    0.1053125861E-02    0.1066061166E-02   -0.4888223321E+01
    0.1380000000E+01    0.1114139917E-02    0.1128777904E-02   -0.4834518635E+01
    0.1403192830E+01    0.1178688920E-02    0.1195427091E-02   -0.4776292009E+01
    0.1426775446E+01    0.1246977249E-02    0.1266177245E-02   -0.4716698852E+01
    0.1450754400E+01    0.1319220904E-02    0.1341187634E-02   -0.4658234597E+01
    0.1475136351E+01    0.1395648131E-02    0.1420611336E-02   -0.4602699659E+01
    0.1499928074E+01    0.1476500083E-02    0.1504599735E-02   -0.4551299064E+01
    0.1525136455E+01    0.1562031512E-02    0.1593308181E-02   -0.4504779511E+01
    0.1550768496E+01    0.1652511493E-02    0.1686902682E-02   -0.4463552812E+01
    0.1576831318E+01    0.1748224186E-02    0.1785567261E-02   -0.4427789928E+01
    0.1603332160E+01    0.1849469629E-02    0.1889511593E-02   -0.4397484626E+01
    0.1630278384E+01    0.1956564570E-02    0.1998978547E-02   -0.4372491001E+01
    0.1657677475E+01    0.2069843341E-02    0.2114251136E-02   -0.4352540795E+01
    0.1685537044E+01    0.2189658766E-02    0.2235658493E-02   -0.4337244748E+01
    0.1713864830E+01    0.2316383114E-02    0.2363580461E-02   -0.4326082415E+01
    0.1742668703E+01    0.2450409090E-02    0.2498450471E-02   -0.4318384513E+01
    0.1771956663E+01    0.2592150880E-02    0.2640756466E-02   -0.4313313813E+01
    0.1801736846E+01    0.2742045225E-02    0.2791039785E-02   -0.4309852134E+01
    0.1832017524E+01    0.2900552557E-02    0.2949891972E-02   -0.4306806007E+01
    0.1862807110E+01    0.3068158175E-02    0.3117949691E-02   -0.4302844655E+01
    0.1894114156E+01    0.3245373469E-02    0.3295887984E-02   -0.4296583816E+01
    0.1925947358E+01    0.3432737197E-02    0.3484412338E-02   -0.4286718334E+01
    0.1958315560E+01    0.3630816813E-02    0.3684250049E-02   -0.4272188525E+01
    0.1991227752E+01    0.3840209849E-02    0.3896141449E-02   -0.4252342760E+01
    0.2024693077E+01    0.4061545344E-02    0.4120831730E-02   -0.4227045024E+01
    0.2058720832E+01    0.4295485337E-02    0.4359063944E-02   -0.4196688993E+01
    0.2093320468E+01    0.4542726406E-02    0.4611573818E-02   -0.4162112383E+01
    0.2128501598E+01    0.4804001269E-02    0.4879087010E-02   -0.4124442527E+01
    0.2164273993E+01    0.5080080439E-02    0.5162319096E-02   -0.4084923991E+01
    0.2200647590E+01    0.5371773934E-02    0.5461978729E-02   -0.4044770376E+01
    0.2237632495E+01    0.5679933051E-02    0.5778773973E-02   -0.4005063210E+01
    0.2275238980E+01    0.6005452184E-02    0.6113421673E-02   -0.3966698954E+01
    0.2313477492E+01    0.6349270715E-02    0.6466659718E-02   -0.3930372584E+01
    0.2352358653E+01    0.6712374942E-02    0.6839261531E-02   -0.3896584278E+01
    0.2391893263E+01    0.7095800080E-02    0.7232052185E-02   -0.3865656780E+01
    0.2432092306E+01    0.7500632301E-02    0.7645925353E-02   -0.3837755154E+01
    0.2472966946E+01    0.7928010834E-02    0.8081860013E-02   -0.3812904816E+01
    0.2514528540E+01    0.8379130112E-02    0.8540936232E-02   -0.3791005056E+01
    0.2556788631E+01    0.8855241964E-02    0.9024348674E-02   -0.3771839159E+01
    0.2599758960E+01    0.9357657849E-02    0.9533417385E-02   -0.3755081103E+01
    0.2643451462E+01    0.9887751135E-02    0.1006959472E-01   -0.3740302025E+01
    0.2687878274E+01    0.1044695940E-01    0.1063446817E-01   -0.3726978405E+01
    0.2733051738E+01    0.1103678679E-01    0.1122975870E-01   -0.3714505900E+01
    0.2778984403E+01    0.1165880634E-01    0.1185731441E-01   -0.3702221841E+01
    0.2825689027E+01    0.1231466239E-01    0.1251910003E-01   -0.3689439146E+01
    0.2873178584E+01    0.1300607293E-01    0.1321718279E-01   -0.3675491476E+01
    0.2921466267E+01    0.1373483198E-01    0.1395371538E-01   -0.3659787175E+01
    0.2970565488E+01    0.1450281196E-01    0.1473091707E-01   -0.3641864982E+01
    0.3020489887E+01    0.1531196601E-01    0.1555105457E-01   -0.3621441202E+01
    0.3071253332E+01    0.1616433027E-01    0.1641642354E-01   -0.3598438753E+01
    0.3122869924E+01    0.1706202612E-01    0.1732933249E-01   -0.3572990691E+01
    0.3175354002E+01    0.1800726228E-01    0.1829209030E-01   -0.3545417296E+01
    0.3228720144E+01    0.1900233694E-01    0.1930699834E-01   -0.3516182563E+01
    0.3282983175E+01    0.2004963958E-01    0.2037634851E-01   -0.3485838989E+01
    0.3338158169E+01    0.2115165285E-01    0.2150242731E-01   -0.3454972041E+01
    0.3394260452E+01    0.2231095408E-01    0.2268752641E-01   -0.3424151593E+01
    0.3451305609E+01    0.2353021675E-01    0.2393395963E-01   -0.3393895118E+01
    0.3509309485E+01    0.2481221158E-01    0.2524408524E-01   -0.3364643279E+01
    0.3568288194E+01    0.2615980744E-01    0.2662033300E-01   -0.3336746262E+01
    0.3628258118E+01    0.2757597191E-01    0.2806523397E-01   -0.3310458457E+01
    0.3689235916E+01    0.2906377141E-01    0.2958145188E-01   -0.3285938221E+01
    0.3751238528E+01    0.3062637102E-01    0.3117181351E-01   -0.3263251036E+01
    0.3814283176E+01    0.3226703372E-01    0.3283933631E-01   -0.3242374289E+01
    0.3878387373E+01    0.3398911920E-01    0.3458725123E-01   -0.3223202939E+01
    0.3943568927E+01    0.3579608198E-01    0.3641901867E-01   -0.3205556092E+01
    0.4009845943E+01    0.3769146892E-01    0.3833833588E-01   -0.3189185030E+01
    0.4077236833E+01    0.3967891596E-01    0.4034913507E-01   -0.3173783190E+01
    0.4145760316E+01    0.4176214405E-01    0.4245557077E-01   -0.3158999427E+01
    0.4215435427E+01    0.4394495416E-01    0.4466199703E-01   -0.3144454876E+01
    0.4286281522E+01    0.4623122129E-01    0.4697293458E-01   -0.3129763941E+01
    0.4358318279E+01    0.4862488734E-01    0.4939302888E-01   -0.3114558750E+01
    0.4431565710E+01    0.5112995287E-01    0.5192700143E-01   -0.3098515217E+01
    0.4506044161E+01    0.5375046737E-01    0.5457959562E-01   -0.3081378289E+01
    0.4581774322E+01    0.5649051827E-01    0.5735552037E-01   -0.3062982836E+01
    0.4658777229E+01    0.5935421827E-01    0.6025939390E-01   -0.3043267147E+01
    0.4737074272E+01    0.6234569103E-01    0.6329569062E-01   -0.3022276583E+01
    0.4816687202E+01    0.6546905499E-01    0.6646869386E-01   -0.3000156865E+01
    0.4897638132E+01    0.6872840530E-01    0.6978245635E-01   -0.2977138356E+01
    0.4979949551E+01    0.7212779363E-01    0.7324077107E-01   -0.2953513637E+01
    0.5063644322E+01    0.7567120566E-01    0.7684715255E-01   -0.2929612293E+01
    0.5148745695E+01    0.7936253632E-01    0.8060482997E-01   -0.2905775733E+01
    0.5235277311E+01    0.8320556244E-01    0.8451675090E-01   -0.2882334880E+01
    0.5323263205E+01    0.8720391268E-01    0.8858559420E-01   -0.2859592050E+01
    0.5412727819E+01    0.9136103480E-01    0.9281379058E-01   -0.2837807389E+01
    0.5503696005E+01    0.9568015989E-01    0.9720354667E-01   -0.2817189818E+01
    0.5596193032E+01    0.1001642636E+00    0.1017568697E+00   -0.2797891619E+01
    0.5690244595E+01    0.1048160244E+00    0.1064755885E+00   -0.2780005960E+01
    0.5785876820E+01    0.1096377780E+00    0.1113613662E+00   -0.2763566488E+01
    0.5883116271E+01    0.1146314694E+00    0.1164157007E+00   -0.2748548849E+01
    0.5981989961E+01    0.1197986008E+00    0.1216399095E+00   -0.2734873401E+01
    0.6082525354E+01    0.1251401766E+00    0.1270350944E+00   -0.2722409621E+01
    0.6184750379E+01    0.1306566448E+00    0.1326020856E+00   -0.2710981982E+01
    0.6288693431E+01    0.1363478350E+00    0.1383413615E+00   -0.2700377983E+01
    0.6394383384E+01    0.1422128939E+00    0.1442529472E+00   -0.2690358491E+01
    0.6501849598E+01    0.1482502166E+00    0.1503362901E+00   -0.2680670387E+01
    0.6611121925E+01    0.1544573764E+00    0.1565901177E+00   -0.2671061814E+01
    0.6722230718E+01    0.1608310508E+00    0.1630122795E+00   -0.2661298788E+01
    0.6835206842E+01    0.1673669461E+00    0.1695995800E+00   -0.2651182494E+01
    0.6950081680E+01    0.1740597201E+00    0.1763476065E+00   -0.2640565542E+01
